GO analysis Fig 4
…
UR4_all <- rbind(BP_Up, MF_Up,CC_Up)

UR4_all

## # A tibble: 126 x 9
##    term_ID    description    frequency   plot_X plot_Y log_size value uniqueness
##    <chr>      <chr>              <dbl>    <dbl>  <dbl>    <dbl> <dbl>      <dbl>
##  1 GO:0006077 (1->6)-beta-D~   0.00491  3.16      5.25     3.07 -2.97      0.803
##  2 GO:0006950 response to s~   4.77    -4.98      1.29     6.06 -5.14      0.796
##  3 GO:0015677 copper ion im~   0.00176  3.79     -5.18     2.63 -1.44      0.964
##  4 GO:0044419 biological pr~   1.26    -1.00      7.07     5.48 -1.38      1    
##  5 GO:0044650 adhesion of s~   0.0132  -6.16     -3.95     3.50 -1.33      0.914
##  6 GO:0048878 chemical home~   0.655   -2.55     -6.36     5.20 -1.95      0.846
##  7 GO:0050896 response to s~  13.7     -2.09      7.67     6.52 -4.87      1    
##  8 GO:0051179 localization    18.8     -1.29      8.35     6.66 -1.54      1    
##  9 GO:0045229 external enca~   1.04    -0.00723  -5.28     5.40 -2.90      0.968
## 10 GO:0097300 programmed ne~   0.00713  0.742    -2.47     3.24 -1.41      0.959
## # ... with 116 more rows, and 1 more variable: dispensability <dbl>
…
ggsave("~/Edward Wallace/Lab based work/RNA Seq/UR4_WT_all.jpg",
       width = 5,height=5)

Down regulated in WT at 4 hours in RPMI

BP_Down <- readr::read_tsv("../GOresults/DR4_WT_BP.csv")
MF_Down <- readr::read_tsv("../GOresults/DR4_WT_MF.csv")
CC_Down <- readr::read_tsv("../GOresults/DR4_WT_CC.csv")

DR4_all <- rbind(BP_Down, MF_Down,CC_Down)

DR4_all

## # A tibble: 71 x 9
##    term_ID    description      frequency plot_X plot_Y log_size value uniqueness
##    <chr>      <chr>                <dbl>  <dbl>  <dbl>    <dbl> <dbl>      <dbl>
##  1 GO:0008643 carbohydrate tr~    0.710   1.86   2.83      5.23 -2.48      1    
##  2 GO:0042254 ribosome biogen~    1.70   -6.23   2.40      5.61 -6.97      0.640
##  3 GO:0051409 response to nit~    0.0161  1.46   5.93      3.59 -1.56      0.968
##  4 GO:0016072 rRNA metabolic ~    1.23   -5.49  -3.35      5.47 -5.57      0.639
##  5 GO:1901568 fatty acid deri~    0.0373  0.285 -8.08      3.95 -1.56      0.947
##  6 GO:0006072 glycerol-3-phos~    0.125  -2.29   7.07      4.48 -2.35      0.909
##  7 GO:0006020 inositol metabo~    0.0636  4.26  -3.24      4.19 -1.97      0.846
##  8 GO:0005975 carbohydrate me~    5.94   -2.18  -8.20      6.16 -1.82      0.901
##  9 GO:0046952 ketone body cat~    0.0114  4.31  -0.387     3.44 -1.56      0.792
## 10 GO:0046950 cellular ketone~    0.0137  2.94  -5.49      3.52 -1.56      0.887
## # ... with 61 more rows, and 1 more variable: dispensability <dbl>
…
