Scatter Plots
…
Load sample sheet and format for DESeq2s requirements: readxl::read_excel

samplesheet <- readxl::read_excel("~/GitHub/CryptoGat201RNASeq_draft_b/input_experiment/Gat201_samplesheet.xlsx") %>%
    magrittr::set_rownames(.$SampleID)%>%
    dplyr::mutate(GAT201 = forcats::fct_collapse(Strain, Yes = c("a","A"), No = c("B","M")))

#RESeq analysis: Scatter plots

Select RPMI only: Gat201 deletion v WT

samplesheet_R <- dplyr::filter(samplesheet, Condition == "R")
                  print(samplesheet_R)

## # A tibble: 24 x 9
##    SampleID BioRep Media Timepoint Group   Strain Condition  Time GAT201
##  * <chr>     <dbl> <chr>     <dbl> <chr>   <chr>  <chr>     <dbl> <fct> 
##  1 2             1 RPMI         30 A_R_30  A      R            30 Yes   
##  2 3             1 RPMI        120 A_R_120 A      R           120 Yes   
##  3 4             1 RPMI        240 A_R_240 A      R           240 Yes   
##  4 6             2 RPMI         30 A_R_30  A      R            30 Yes   
##  5 7             2 RPMI        120 A_R_120 A      R           120 Yes   
##  6 8             2 RPMI        240 A_R_240 A      R           240 Yes   
##  7 16            1 RPMI         30 a_R_30  a      R            30 Yes   
##  8 17            1 RPMI        120 a_R_120 a      R           120 Yes   
##  9 18            1 RPMI        240 a_R_240 a      R           240 Yes   
## 10 20            2 RPMI         30 a_R_30  a      R            30 Yes   
## # ... with 14 more rows

counts_R <-   dplyr::select(counts, samplesheet_R$SampleID) %>%
               magrittr::set_rownames(counts$Geneid)
              print(counts_R)

## # A tibble: 6,795 x 24
##      `2`   `3`   `4`   `6`   `7`   `8`  `16`  `17`  `18`  `20`  `21`  `22`  `30`
##  * <dbl> <dbl> <dbl> <dbl> <dbl> <dbl> <dbl> <dbl> <dbl> <dbl> <dbl> <dbl> <dbl>
##  1  1262   423   231  1467   432   209  1378   599   207  1806   519   283  1248
##  2    86    92   115    85   120    99    89   163    98   117   111    96    70
##  3   246   201   104   253   159   141   224   247   101   280   268   134   157
##  4   337   463   263   331   564   233   307   584   175   436   513   209   298
##  5   422  1069  1215   448  1129  1202   404  1419   877   549  1318  1217   416
##  6   477   424   310   467   458   262   493   609   241   612   570   273   505
##  7   330   356   300   435   323   278   351   415   229   390   314   351   355
##  8    64   178   199    68   170   186    76   176   159    93   175   180    46
##  9   881   495   533  1085   456   394   976   585   445  1070   552   495   965
## 10    32    85   145    29    86   146    21   112    97    38    92   131    27
## # ... with 6,785 more rows, and 11 more variables: 31 <dbl>, 32 <dbl>,
## #   34 <dbl>, 35 <dbl>, 36 <dbl>, 44 <dbl>, 45 <dbl>, 46 <dbl>, 48 <dbl>,
## #   49 <dbl>, 50 <dbl>
…
tresults_R %>%  
dplyr::mutate(minus_log10_pvalue = -log10(p.value)) %>%
readr::write_tsv("~/GitHub/CryptoGat201RNASeq_draft_b/results_deseq/Gat201_WT_R.txt")

de_Gat201up_R <- dplyr::filter(tresults_R, estimate > 1, p.adjusted < 0.05) %>%
              dplyr::arrange(desc(estimate))
de_Gat201up_R

## # A tibble: 33 x 7
##    gene       baseMean estimate stderror statistic      p.value p.adjusted
##    <chr>         <dbl>    <dbl>    <dbl>     <dbl>        <dbl>      <dbl>
##  1 CNAG_06347 17233.       2.60    0.711      3.65 0.000257     0.00863   
##  2 CNAG_01560    38.4      2.38    0.536      4.45 0.00000878   0.000546  
##  3 CNAG_00588  1589.       2.29    0.519      4.41 0.0000102    0.000623  
##  4 CNAG_01562  1008.       2.16    0.543      3.99 0.0000673    0.00298   
##  5 CNAG_01500     7.13     2.05    0.516      3.96 0.0000736    0.00318   
##  6 CNAG_01965    22.8      1.99    0.367      5.42 0.0000000587 0.00000781
##  7 CNAG_02984    26.0      1.83    0.469      3.90 0.0000977    0.00396   
##  8 CNAG_02942   195.       1.81    0.525      3.44 0.000580     0.0165    
##  9 CNAG_00765   350.       1.76    0.334      5.27 0.000000137  0.0000157 
## 10 CNAG_06541  1528.       1.75    0.340      5.15 0.000000261  0.0000264 
## # ... with 23 more rows

readr::write_tsv(de_Gat201up_R, "~/GitHub/CryptoGat201RNASeq_draft_b/results_deseq/Gat201up_padj05_R.txt")
readr::write_lines(de_Gat201up_R$gene, "~/GitHub/CryptoGat201RNASeq_draft_b/results_deseq/Gat201up_padj05_R_genesonly.csv")

de_Gat201down_R <- dplyr::filter(tresults_R, estimate < -1, p.adjusted < 0.05) %>%
                dplyr::arrange(estimate)
de_Gat201down_R

## # A tibble: 92 x 7
##    gene       baseMean estimate stderror statistic  p.value p.adjusted
##    <chr>         <dbl>    <dbl>    <dbl>     <dbl>    <dbl>      <dbl>
##  1 CNAG_01980     74.1    -5.98    0.737     -8.12 4.53e-16   4.38e-13
##  2 CNAG_06389    243.     -5.36    0.667     -8.03 1.01e-15   8.58e-13
##  3 CNAG_03894    196.     -4.41    0.679     -6.49 8.42e-11   2.19e- 8
##  4 CNAG_01551   1887.     -3.87    0.308    -12.6  3.27e-36   2.21e-32
##  5 CNAG_00456   1388.     -3.43    0.471     -7.28 3.46e-13   1.80e-10
##  6 CNAG_06346    596.     -3.26    0.769     -4.23 2.32e- 5   1.25e- 3
##  7 CNAG_00735     77.1    -3.05    0.391     -7.79 6.74e-15   4.57e-12
##  8 CNAG_04874    681.     -3.03    0.423     -7.16 7.90e-13   3.57e-10
##  9 CNAG_00302     62.5    -2.92    0.358     -8.17 3.03e-16   3.43e-13
## 10 CNAG_06917   4474.     -2.92    0.858     -3.40 6.81e- 4   1.85e- 2
## # ... with 82 more rows

readr::write_tsv(de_Gat201down_R, "~/GitHub/CryptoGat201RNASeq_draft_b/results_deseq/Gat201down_padj05_R.txt")

readr::write_lines(de_Gat201down_R$gene, "~/GitHub/CryptoGat201RNASeq_draft_b/results_deseq/Gat201down_padj05_R_genesonly.csv")

Select RPMI + Serum only: Gat201 deletion v WT

samplesheet_RS <- dplyr::filter(samplesheet, Condition == "RS")
                  print(samplesheet_RS)

## # A tibble: 24 x 9
##    SampleID BioRep Media  Timepoint Group    Strain Condition  Time GAT201
##  * <chr>     <dbl> <chr>      <dbl> <chr>    <chr>  <chr>     <dbl> <fct> 
##  1 9             1 RPMI+S        30 A_RS_30  A      RS           30 Yes   
##  2 10            1 RPMI+S       120 A_RS_120 A      RS          120 Yes   
##  3 11            1 RPMI+S       240 A_RS_240 A      RS          240 Yes   
##  4 12            2 RPMI+S        30 A_RS_30  A      RS           30 Yes   
##  5 13            2 RPMI+S       120 A_RS_120 A      RS          120 Yes   
##  6 14            2 RPMI+S       240 A_RS_240 A      RS          240 Yes   
##  7 23            1 RPMI+S        30 a_RS_30  a      RS           30 Yes   
##  8 24            1 RPMI+S       120 a_RS_120 a      RS          120 Yes   
##  9 25            1 RPMI+S       240 a_RS_240 a      RS          240 Yes   
## 10 26            2 RPMI+S        30 a_RS_30  a      RS           30 Yes   
## # ... with 14 more rows
…
tresults_RS %>%  
dplyr::mutate(minus_log10_pvalue = -log10(p.value)) %>%
readr::write_tsv("~/GitHub/CryptoGat201RNASeq_draft_b/results_deseq/Gat201_WT_RS.txt")

de_Gat201up_RS <- dplyr::filter(tresults_RS, estimate > 1, p.adjusted < 0.05) %>%
              dplyr::arrange(desc(estimate))
de_Gat201up_RS

## # A tibble: 26 x 7
##    gene       baseMean estimate stderror statistic  p.value    p.adjusted
##    <chr>         <dbl>    <dbl>    <dbl>     <dbl>    <dbl>         <dbl>
##  1 CNAG_01560    47.4      2.59    0.526      4.92 8.80e- 7 0.0000917    
##  2 CNAG_00269    15.1      2.28    0.331      6.87 6.20e-12 0.00000000300
##  3 CNAG_01562   810.       2.24    0.559      4.01 5.96e- 5 0.00278      
##  4 CNAG_06347 17559.       2.10    0.684      3.07 2.14e- 3 0.0373       
##  5 CNAG_02984    26.6      2.00    0.469      4.25 2.10e- 5 0.00117      
##  6 CNAG_00588  1262.       1.97    0.481      4.11 3.98e- 5 0.00197      
##  7 CNAG_03087     9.23     1.89    0.439      4.30 1.71e- 5 0.000991     
##  8 CNAG_04657    96.4      1.79    0.345      5.19 2.09e- 7 0.0000284    
##  9 CNAG_01539   481.       1.77    0.343      5.16 2.45e- 7 0.0000325    
## 10 CNAG_01500    11.3      1.62    0.456      3.55 3.83e- 4 0.0109       
## # ... with 16 more rows

readr::write_tsv(de_Gat201up_RS, "~/GitHub/CryptoGat201RNASeq_draft_b/results_deseq/Gat201up_padj05_RS.txt")
readr::write_lines(de_Gat201up_RS$gene, "~/GitHub/CryptoGat201RNASeq_draft_b/results_deseq/Gat201up_padj05_RS_genesonly.csv")

de_Gat201down_RS <- dplyr::filter(tresults_RS, estimate < -1, p.adjusted < 0.05) %>%
                dplyr::arrange(estimate)
de_Gat201down_RS

## # A tibble: 58 x 7
##    gene       baseMean estimate stderror statistic  p.value p.adjusted
##    <chr>         <dbl>    <dbl>    <dbl>     <dbl>    <dbl>      <dbl>
##  1 CNAG_06389    155.     -5.32    0.694     -7.67 1.73e-14   1.68e-11
##  2 CNAG_01980     37.4    -4.57    0.725     -6.30 2.92e-10   8.25e- 8
##  3 CNAG_03894     86.6    -4.14    0.616     -6.72 1.77e-11   6.69e- 9
##  4 CNAG_01551   1617.     -3.80    0.297    -12.8  1.31e-37   8.90e-34
##  5 CNAG_06346    749.     -3.24    0.787     -4.12 3.77e- 5   1.89e- 3
##  6 CNAG_06917   3851.     -3.19    0.842     -3.80 1.48e- 4   5.50e- 3
##  7 CNAG_04874    627.     -2.86    0.432     -6.62 3.57e-11   1.21e- 8
##  8 CNAG_00456    846.     -2.54    0.421     -6.03 1.64e- 9   3.58e- 7
##  9 CNAG_00302     54.9    -2.54    0.316     -8.03 1.01e-15   1.37e-12
## 10 CNAG_02872     58.4    -2.34    0.358     -6.53 6.37e-11   1.96e- 8
## # ... with 48 more rows

readr::write_tsv(de_Gat201down_RS, "~/GitHub/CryptoGat201RNASeq_draft_b/results_deseq/Gat201down_padj05_RS.txt")

readr::write_lines(de_Gat201down_RS$gene, "~/GitHub/CryptoGat201RNASeq_draft_b/results_deseq/Gat201down_padj05_RS_genesonly.csv")

Combine tresults_R and tresults_RS

tresults <- bind_cols(tresults_R, tresults_RS)
              
tresults

## # A tibble: 6,795 x 14
##    gene...1   baseMean...2 estimate...3 stderror...4 statistic...5 p.value...6
##    <chr>             <dbl>        <dbl>        <dbl>         <dbl>       <dbl>
##  1 CNAG_00002        938.       0.0299         0.505       0.0591       0.953 
##  2 CNAG_00003        106.      -0.282          0.141      -2.01         0.0447
##  3 CNAG_00004        216.      -0.126          0.251      -0.501        0.617 
##  4 CNAG_00005        459.       0.389          0.182       2.14         0.0325
##  5 CNAG_00006       1045.       0.203          0.185       1.10         0.273 
##  6 CNAG_00007        524.       0.197          0.218       0.901        0.368 
##  7 CNAG_00008        381.      -0.0323         0.202      -0.160        0.873 
##  8 CNAG_00009        135.      -0.351          0.156      -2.26         0.0240
##  9 CNAG_00010        800.       0.00287        0.377       0.00762      0.994 
## 10 CNAG_00011         74.8     -0.487          0.250      -1.94         0.0521
## # ... with 6,785 more rows, and 8 more variables: p.adjusted...7 <dbl>,
## #   gene...8 <chr>, baseMean...9 <dbl>, estimate...10 <dbl>,
## #   stderror...11 <dbl>, statistic...12 <dbl>, p.value...13 <dbl>,
## #   p.adjusted...14 <dbl>
…
Combine tresults_R30 and tresults_RS30

tresults_30 <- bind_cols(tresults_R30, tresults_RS30)
              
tresults_30

## # A tibble: 6,795 x 14
##    gene...1   baseMean...2 estimate...3 stderror...4 statistic...5 p.value...6
##    <chr>             <dbl>        <dbl>        <dbl>         <dbl>       <dbl>
##  1 CNAG_00002       1410.      -0.0102         0.118      -0.0870       0.931 
##  2 CNAG_00003         80.0     -0.375          0.216      -1.74         0.0824
##  3 CNAG_00004        225.      -0.215          0.156      -1.38         0.168 
##  4 CNAG_00005        339.       0.00811        0.126       0.0644       0.949 
##  5 CNAG_00006        460.       0.142          0.122       1.16         0.246 
##  6 CNAG_00007        519.       0.146          0.129       1.13         0.257 
##  7 CNAG_00008        370.       0.0499         0.153       0.326        0.744 
##  8 CNAG_00009         64.2     -0.360          0.204      -1.76         0.0779
##  9 CNAG_00010       1032.       0.181          0.114       1.59         0.113 
## 10 CNAG_00011         28.6      0.00141        0.300       0.00469      0.996 
## # ... with 6,785 more rows, and 8 more variables: p.adjusted...7 <dbl>,
## #   gene...8 <chr>, baseMean...9 <dbl>, estimate...10 <dbl>,
## #   stderror...11 <dbl>, statistic...12 <dbl>, p.value...13 <dbl>,
## #   p.adjusted...14 <dbl>

Combine tresults_R2 and tresults_RS2

tresults_2 <- bind_cols(tresults_R2, tresults_RS2)
              
tresults_2

## # A tibble: 6,795 x 14
##    gene...1   baseMean...2 estimate...3 stderror...4 statistic...5 p.value...6
##    <chr>             <dbl>        <dbl>        <dbl>         <dbl>       <dbl>
##  1 CNAG_00002        559.        0.110         0.160         0.687    0.492   
##  2 CNAG_00003        139.        0.145         0.193         0.750    0.453   
##  3 CNAG_00004        240.        0.0178        0.159         0.111    0.911   
##  4 CNAG_00005        728.        0.575         0.152         3.79     0.000153
##  5 CNAG_00006       1387.        0.0750        0.104         0.723    0.469   
##  6 CNAG_00007        568.        0.0267        0.113         0.236    0.813   
##  7 CNAG_00008        391.        0.0222        0.165         0.135    0.893   
##  8 CNAG_00009        183.       -0.169         0.144        -1.17     0.240   
##  9 CNAG_00010        560.       -0.0678        0.115        -0.590    0.555   
## 10 CNAG_00011         96.0      -0.189         0.179        -1.06     0.290   
## # ... with 6,785 more rows, and 8 more variables: p.adjusted...7 <dbl>,
## #   gene...8 <chr>, baseMean...9 <dbl>, estimate...10 <dbl>,
## #   stderror...11 <dbl>, statistic...12 <dbl>, p.value...13 <dbl>,
## #   p.adjusted...14 <dbl>

Combine tresults_R4 and tresults_RS4

tresults_4 <- bind_cols(tresults_R4, tresults_RS4)
              
tresults_4

## # A tibble: 6,795 x 14
##    gene...1   baseMean...2 estimate...3 stderror...4 statistic...5 p.value...6
##    <chr>             <dbl>        <dbl>        <dbl>         <dbl>       <dbl>
##  1 CNAG_00002         330.       0.282         0.158         1.79   0.0740    
##  2 CNAG_00003         106.      -0.674         0.184        -3.67   0.000246  
##  3 CNAG_00004         149.      -0.0857        0.160        -0.536  0.592     
##  4 CNAG_00005         364.       0.676         0.155         4.35   0.0000134 
##  5 CNAG_00006        1606.       0.301         0.125         2.42   0.0157    
##  6 CNAG_00007         421.       0.506         0.161         3.14   0.00171   
##  7 CNAG_00008         340.      -0.248         0.147        -1.69   0.0913    
##  8 CNAG_00009         196.      -0.550         0.157        -3.50   0.000470  
##  9 CNAG_00010         503.      -0.558         0.165        -3.38   0.000720  
## 10 CNAG_00011         126.      -0.911         0.204        -4.46   0.00000818
## # ... with 6,785 more rows, and 8 more variables: p.adjusted...7 <dbl>,
## #   gene...8 <chr>, baseMean...9 <dbl>, estimate...10 <dbl>,
## #   stderror...11 <dbl>, statistic...12 <dbl>, p.value...13 <dbl>,
## #   p.adjusted...14 <dbl>
…
